#compdef _neorg neorg
function _neorg() {
    local context state state_descr line completing_option=0
    typeset -A opt_args

    # actual command completions
    _arguments '1: :(task dmenu workspace project list add)'

    # collect the current line
    _arguments '*::arg:->args'

    # we only support on argument, so we break after one (for cmd arguments)
    if [ "${#line[@]}" -lt 3 ]; then
        case "${line[1]}" in
            task)
                _ID
            ;;

            workspace)
                _WS
            ;;
            project)
                _P
            ;;
        esac
    fi

    # option arguments can be completed everywhere (thus use the second last element)
    case "${line[-2]}" in

    esac

    # only complete options, when not completing a mandatory argument to another option
    if [ "$completing_option" = 0 ] && [[ "${line[-1]}" == "-"* ]]; then
        _describe 'command' "(--help:'Display this help and exit.' --version:'Display version and copyright information and exit.')"
    fi


}

function _ID()
{
    _describe 'command' "($( (wc="$(task project:"$(task _get rc.context)" _ids)"; if [ "$wc" ]; then echo "$wc"; else echo "0"; fi ) | xargs task _zshids | awk -F: -v s="'" '{print $1 ":" s $2 s}' ))"
}
function _WS()
{
    compadd general journal projects
}
function _P()
{
    compadd project_one project.two project.two_one project
}
